dump.vcd
$version Generated by VerilatedVcd $end
$date Wed Nov 29 16:57:46 2023
 $end
$timescale   1ns $end

 $scope module TOP $end
  $var wire  1 U% clock $end
  $var wire  5 g& io_debug_read_address [4:0] $end
  $var wire 32 o& io_debug_read_data [31:0] $end
  $var wire  3 _& io_deviceSelect [2:0] $end
  $var wire 32 m% io_instruction [31:0] $end
  $var wire 32 e% io_instruction_address [31:0] $end
  $var wire  1 W& io_instruction_valid $end
  $var wire 32 u% io_memory_bundle_address [31:0] $end
  $var wire 32 O& io_memory_bundle_read_data [31:0] $end
  $var wire 32 }% io_memory_bundle_write_data [31:0] $end
  $var wire  1 '& io_memory_bundle_write_enable $end
  $var wire  1 /& io_memory_bundle_write_strobe_0 $end
  $var wire  1 7& io_memory_bundle_write_strobe_1 $end
  $var wire  1 ?& io_memory_bundle_write_strobe_2 $end
  $var wire  1 G& io_memory_bundle_write_strobe_3 $end
  $var wire  1 ]% reset $end
  $scope module Top $end
   $var wire  1 U% clock $end
   $var wire  1 U% cpu_clock $end
   $var wire  5 g& cpu_io_debug_read_address [4:0] $end
   $var wire 32 w& cpu_io_debug_read_data [31:0] $end
   $var wire 32 m% cpu_io_instruction [31:0] $end
   $var wire 32 g" cpu_io_instruction_address [31:0] $end
   $var wire  1 W& cpu_io_instruction_valid $end
   $var wire 32 + cpu_io_memory_bundle_address [31:0] $end
   $var wire 32 O& cpu_io_memory_bundle_read_data [31:0] $end
   $var wire 32 3 cpu_io_memory_bundle_write_data [31:0] $end
   $var wire  1 ; cpu_io_memory_bundle_write_enable $end
   $var wire  1 C cpu_io_memory_bundle_write_strobe_0 $end
   $var wire  1 K cpu_io_memory_bundle_write_strobe_1 $end
   $var wire  1 S cpu_io_memory_bundle_write_strobe_2 $end
   $var wire  1 [ cpu_io_memory_bundle_write_strobe_3 $end
   $var wire  1 ]% cpu_reset $end
   $var wire  5 g& io_debug_read_address [4:0] $end
   $var wire 32 o& io_debug_read_data [31:0] $end
   $var wire  3 _& io_deviceSelect [2:0] $end
   $var wire 32 m% io_instruction [31:0] $end
   $var wire 32 e% io_instruction_address [31:0] $end
   $var wire  1 W& io_instruction_valid $end
   $var wire 32 u% io_memory_bundle_address [31:0] $end
   $var wire 32 O& io_memory_bundle_read_data [31:0] $end
   $var wire 32 }% io_memory_bundle_write_data [31:0] $end
   $var wire  1 '& io_memory_bundle_write_enable $end
   $var wire  1 /& io_memory_bundle_write_strobe_0 $end
   $var wire  1 7& io_memory_bundle_write_strobe_1 $end
   $var wire  1 ?& io_memory_bundle_write_strobe_2 $end
   $var wire  1 G& io_memory_bundle_write_strobe_3 $end
   $var wire  1 ]% reset $end
   $scope module cpu $end
    $var wire  1 U% clock $end
    $var wire  1 U! ex_io_aluop1_source $end
    $var wire  1 ]! ex_io_aluop2_source $end
    $var wire 32 # ex_io_if_jump_address [31:0] $end
    $var wire  1 =! ex_io_if_jump_flag $end
    $var wire 32 M! ex_io_immediate [31:0] $end
    $var wire 32 E! ex_io_instruction [31:0] $end
    $var wire 32 g" ex_io_instruction_address [31:0] $end
    $var wire 32 }! ex_io_mem_alu_result [31:0] $end
    $var wire 32 -! ex_io_reg1_data [31:0] $end
    $var wire 32 5! ex_io_reg2_data [31:0] $end
    $var wire  1 U! id_io_ex_aluop1_source $end
    $var wire  1 ]! id_io_ex_aluop2_source $end
    $var wire 32 M! id_io_ex_immediate [31:0] $end
    $var wire 32 E! id_io_instruction [31:0] $end
    $var wire  1 e! id_io_memory_read_enable $end
    $var wire  1 m! id_io_memory_write_enable $end
    $var wire  5 k id_io_reg_write_address [4:0] $end
    $var wire  1 c id_io_reg_write_enable $end
    $var wire  5 { id_io_regs_reg1_read_address [4:0] $end
    $var wire  5 %! id_io_regs_reg2_read_address [4:0] $end
    $var wire  2 u! id_io_wb_reg_write_source [1:0] $end
    $var wire  1 U% inst_fetch_clock $end
    $var wire 32 E! inst_fetch_io_instruction [31:0] $end
    $var wire 32 g" inst_fetch_io_instruction_address [31:0] $end
    $var wire 32 m% inst_fetch_io_instruction_read_data [31:0] $end
    $var wire  1 W& inst_fetch_io_instruction_valid $end
    $var wire 32 # inst_fetch_io_jump_address_id [31:0] $end
    $var wire  1 =! inst_fetch_io_jump_flag_id $end
    $var wire  1 ]% inst_fetch_reset $end
    $var wire  5 g& io_debug_read_address [4:0] $end
    $var wire 32 w& io_debug_read_data [31:0] $end
    $var wire 32 m% io_instruction [31:0] $end
    $var wire 32 g" io_instruction_address [31:0] $end
    $var wire  1 W& io_instruction_valid $end
    $var wire 32 + io_memory_bundle_address [31:0] $end
    $var wire 32 O& io_memory_bundle_read_data [31:0] $end
    $var wire 32 3 io_memory_bundle_write_data [31:0] $end
    $var wire  1 ; io_memory_bundle_write_enable $end
    $var wire  1 C io_memory_bundle_write_strobe_0 $end
    $var wire  1 K io_memory_bundle_write_strobe_1 $end
    $var wire  1 S io_memory_bundle_write_strobe_2 $end
    $var wire  1 [ io_memory_bundle_write_strobe_3 $end
    $var wire 32 }! mem_io_alu_result [31:0] $end
    $var wire  3 '" mem_io_funct3 [2:0] $end
    $var wire 32 }! mem_io_memory_bundle_address [31:0] $end
    $var wire 32 O& mem_io_memory_bundle_read_data [31:0] $end
    $var wire 32 3 mem_io_memory_bundle_write_data [31:0] $end
    $var wire  1 ; mem_io_memory_bundle_write_enable $end
    $var wire  1 C mem_io_memory_bundle_write_strobe_0 $end
    $var wire  1 K mem_io_memory_bundle_write_strobe_1 $end
    $var wire  1 S mem_io_memory_bundle_write_strobe_2 $end
    $var wire  1 [ mem_io_memory_bundle_write_strobe_3 $end
    $var wire  1 e! mem_io_memory_read_enable $end
    $var wire  1 m! mem_io_memory_write_enable $end
    $var wire 32 5! mem_io_reg2_data [31:0] $end
    $var wire 32 !' mem_io_wb_memory_read_data [31:0] $end
    $var wire  1 U% regs_clock $end
    $var wire  5 g& regs_io_debug_read_address [4:0] $end
    $var wire 32 w& regs_io_debug_read_data [31:0] $end
    $var wire  5 { regs_io_read_address1 [4:0] $end
    $var wire  5 %! regs_io_read_address2 [4:0] $end
    $var wire 32 -! regs_io_read_data1 [31:0] $end
    $var wire 32 5! regs_io_read_data2 [31:0] $end
    $var wire  5 k regs_io_write_address [4:0] $end
    $var wire 32 s regs_io_write_data [31:0] $end
    $var wire  1 c regs_io_write_enable $end
    $var wire  1 ]% regs_reset $end
    $var wire  1 ]% reset $end
    $var wire 32 }! wb_io_alu_result [31:0] $end
    $var wire 32 g" wb_io_instruction_address [31:0] $end
    $var wire 32 !' wb_io_memory_read_data [31:0] $end
    $var wire 32 s wb_io_regs_write_data [31:0] $end
    $var wire  2 u! wb_io_regs_write_source [1:0] $end
    $scope module ex $end
     $var wire  4 ?" alu_ctrl_io_alu_funct [3:0] $end
     $var wire  3 '" alu_ctrl_io_funct3 [2:0] $end
     $var wire  7 W" alu_ctrl_io_funct7 [6:0] $end
     $var wire  7 /" alu_ctrl_io_opcode [6:0] $end
     $var wire  4 ?" alu_io_func [3:0] $end
     $var wire 32 G" alu_io_op1 [31:0] $end
     $var wire 32 O" alu_io_op2 [31:0] $end
     $var wire 32 }! alu_io_result [31:0] $end
     $var wire  3 '" funct3 [2:0] $end
     $var wire  1 U! io_aluop1_source $end
     $var wire  1 ]! io_aluop2_source $end
     $var wire 32 # io_if_jump_address [31:0] $end
     $var wire  1 =! io_if_jump_flag $end
     $var wire 32 M! io_immediate [31:0] $end
     $var wire 32 E! io_instruction [31:0] $end
     $var wire 32 g" io_instruction_address [31:0] $end
     $var wire 32 }! io_mem_alu_result [31:0] $end
     $var wire 32 -! io_reg1_data [31:0] $end
     $var wire 32 5! io_reg2_data [31:0] $end
     $var wire  7 /" opcode [6:0] $end
     $scope module alu $end
      $var wire  4 ?" io_func [3:0] $end
      $var wire 32 G" io_op1 [31:0] $end
      $var wire 32 O" io_op2 [31:0] $end
      $var wire 32 }! io_result [31:0] $end
     $upscope $end
     $scope module alu_ctrl $end
      $var wire  4 ?" io_alu_funct [3:0] $end
      $var wire  3 '" io_funct3 [2:0] $end
      $var wire  7 W" io_funct7 [6:0] $end
      $var wire  7 /" io_opcode [6:0] $end
     $upscope $end
    $upscope $end
    $scope module id $end
     $var wire  1 U! io_ex_aluop1_source $end
     $var wire  1 ]! io_ex_aluop2_source $end
     $var wire 32 M! io_ex_immediate [31:0] $end
     $var wire 32 E! io_instruction [31:0] $end
     $var wire  1 e! io_memory_read_enable $end
     $var wire  1 m! io_memory_write_enable $end
     $var wire  5 k io_reg_write_address [4:0] $end
     $var wire  1 c io_reg_write_enable $end
     $var wire  5 { io_regs_reg1_read_address [4:0] $end
     $var wire  5 %! io_regs_reg2_read_address [4:0] $end
     $var wire  2 u! io_wb_reg_write_source [1:0] $end
     $var wire  7 /" opcode [6:0] $end
     $var wire  5 k rd [4:0] $end
     $var wire  5 7" rs1 [4:0] $end
    $upscope $end
    $scope module inst_fetch $end
     $var wire  1 U% clock $end
     $var wire 32 E! io_instruction [31:0] $end
     $var wire 32 g" io_instruction_address [31:0] $end
     $var wire 32 m% io_instruction_read_data [31:0] $end
     $var wire  1 W& io_instruction_valid $end
     $var wire 32 # io_jump_address_id [31:0] $end
     $var wire  1 =! io_jump_flag_id $end
     $var wire 32 g" pc [31:0] $end
     $var wire  1 ]% reset $end
    $upscope $end
    $scope module mem $end
     $var wire 32 }! io_alu_result [31:0] $end
     $var wire  3 '" io_funct3 [2:0] $end
     $var wire 32 }! io_memory_bundle_address [31:0] $end
     $var wire 32 O& io_memory_bundle_read_data [31:0] $end
     $var wire 32 3 io_memory_bundle_write_data [31:0] $end
     $var wire  1 ; io_memory_bundle_write_enable $end
     $var wire  1 C io_memory_bundle_write_strobe_0 $end
     $var wire  1 K io_memory_bundle_write_strobe_1 $end
     $var wire  1 S io_memory_bundle_write_strobe_2 $end
     $var wire  1 [ io_memory_bundle_write_strobe_3 $end
     $var wire  1 e! io_memory_read_enable $end
     $var wire  1 m! io_memory_write_enable $end
     $var wire 32 5! io_reg2_data [31:0] $end
     $var wire 32 !' io_wb_memory_read_data [31:0] $end
     $var wire  2 _" mem_address_index [1:0] $end
    $upscope $end
    $scope module regs $end
     $var wire  1 U% clock $end
     $var wire  5 g& io_debug_read_address [4:0] $end
     $var wire 32 w& io_debug_read_data [31:0] $end
     $var wire  5 { io_read_address1 [4:0] $end
     $var wire  5 %! io_read_address2 [4:0] $end
     $var wire 32 -! io_read_data1 [31:0] $end
     $var wire 32 5! io_read_data2 [31:0] $end
     $var wire  5 k io_write_address [4:0] $end
     $var wire 32 s io_write_data [31:0] $end
     $var wire  1 c io_write_enable $end
     $var wire 32 o" registers_0 [31:0] $end
     $var wire 32 w" registers_1 [31:0] $end
     $var wire 32 a# registers_10 [31:0] $end
     $var wire 32 i# registers_11 [31:0] $end
     $var wire 32 q# registers_12 [31:0] $end
     $var wire 32 y# registers_13 [31:0] $end
     $var wire 32 #$ registers_14 [31:0] $end
     $var wire 32 +$ registers_15 [31:0] $end
     $var wire 32 3$ registers_16 [31:0] $end
     $var wire 32 ;$ registers_17 [31:0] $end
     $var wire 32 C$ registers_18 [31:0] $end
     $var wire 32 K$ registers_19 [31:0] $end
     $var wire 32 !# registers_2 [31:0] $end
     $var wire 32 S$ registers_20 [31:0] $end
     $var wire 32 [$ registers_21 [31:0] $end
     $var wire 32 c$ registers_22 [31:0] $end
     $var wire 32 k$ registers_23 [31:0] $end
     $var wire 32 s$ registers_24 [31:0] $end
     $var wire 32 {$ registers_25 [31:0] $end
     $var wire 32 %% registers_26 [31:0] $end
     $var wire 32 -% registers_27 [31:0] $end
     $var wire 32 5% registers_28 [31:0] $end
     $var wire 32 =% registers_29 [31:0] $end
     $var wire 32 )# registers_3 [31:0] $end
     $var wire 32 E% registers_30 [31:0] $end
     $var wire 32 M% registers_31 [31:0] $end
     $var wire 32 1# registers_4 [31:0] $end
     $var wire 32 9# registers_5 [31:0] $end
     $var wire 32 A# registers_6 [31:0] $end
     $var wire 32 I# registers_7 [31:0] $end
     $var wire 32 Q# registers_8 [31:0] $end
     $var wire 32 Y# registers_9 [31:0] $end
     $var wire  1 ]% reset $end
    $upscope $end
    $scope module wb $end
     $var wire 32 }! io_alu_result [31:0] $end
     $var wire 32 g" io_instruction_address [31:0] $end
     $var wire 32 !' io_memory_read_data [31:0] $end
     $var wire 32 s io_regs_write_data [31:0] $end
     $var wire  2 u! io_regs_write_source [1:0] $end
    $upscope $end
   $upscope $end
  $upscope $end
 $upscope $end
$enddefinitions $end


#0
b00000000000000000000000000000000 #
b00000000000000000000000000000000 +
b00000000000000000000000000000000 3
0;
0C
0K
0S
0[
1c
b00000 k
b00000000000000000000000000000000 s
b00000 {
b00000 %!
b00000000000000000000000000000000 -!
b00000000000000000000000000000000 5!
0=!
b00000000000000000000000000010011 E!
b00000000000000000000000000000000 M!
0U!
1]!
0e!
0m!
b00 u!
b00000000000000000000000000000000 }!
b000 '"
b0010011 /"
b00000 7"
b0001 ?"
b00000000000000000000000000000000 G"
b00000000000000000000000000000000 O"
b0000000 W"
b00 _"
b00000000000000000000000000000000 g"
b00000000000000000000000000000000 o"
b00000000000000000000000000000000 w"
b00000000000000000000000000000000 !#
b00000000000000000000000000000000 )#
b00000000000000000000000000000000 1#
b00000000000000000000000000000000 9#
b00000000000000000000000000000000 A#
b00000000000000000000000000000000 I#
b00000000000000000000000000000000 Q#
b00000000000000000000000000000000 Y#
b00000000000000000000000000000000 a#
b00000000000000000000000000000000 i#
b00000000000000000000000000000000 q#
b00000000000000000000000000000000 y#
b00000000000000000000000000000000 #$
b00000000000000000000000000000000 +$
b00000000000000000000000000000000 3$
b00000000000000000000000000000000 ;$
b00000000000000000000000000000000 C$
b00000000000000000000000000000000 K$
b00000000000000000000000000000000 S$
b00000000000000000000000000000000 [$
b00000000000000000000000000000000 c$
b00000000000000000000000000000000 k$
b00000000000000000000000000000000 s$
b00000000000000000000000000000000 {$
b00000000000000000000000000000000 %%
b00000000000000000000000000000000 -%
b00000000000000000000000000000000 5%
b00000000000000000000000000000000 =%
b00000000000000000000000000000000 E%
b00000000000000000000000000000000 M%
0U%
1]%
b00000000000000000000000000000000 e%
b00000000000000000000000000000000 m%
b00000000000000000000000000000000 u%
b00000000000000000000000000000000 }%
0'&
0/&
07&
0?&
0G&
b00000000000000000000000000000000 O&
0W&
b000 _&
b00000 g&
b00000000000000000000000000000000 o&
b00000000000000000000000000000000 w&
b00000000000000000000000000000000 !'
#1
b00000000000000000001000000000000 #
0c
b00000000000000000000000000000000 E!
b0000000 /"
b0000 ?"
b00000000000000000001000000000000 g"
1U%
b00000000000000000001000000000000 e%
1W&
#2
b00000000000000000001000000000100 #
b00000000000000000000000000000100 +
1c
b10101 k
b00000000000000000000000000000100 s
b00100 %!
b00000000010000000000101010010011 E!
b00000000000000000000000000000100 M!
b00000000000000000000000000000100 }!
b0010011 /"
b0001 ?"
b00000000000000000000000000000100 O"
b00000000010000000000101010010011 m%
b00000000000000000000000000000100 u%
#3
0U%
0]%
#4
#5
b00000000000000000001000000001000 #
b00000000000000000001000000000100 g"
b00000000000000000000000000000100 [$
1U%
b00000000000000000001000000000100 e%
#6
b00000000000000000001000000000100 #
b00000000000000000001000000000100 +
b01110 k
b00000000000000000001000000000100 s
b00000 %!
b00000000000000000000011100010111 E!
b00000000000000000000000000000000 M!
1U!
b00000000000000000001000000000100 }!
b0010111 /"
b00000000000000000001000000000100 G"
b00000000000000000000000000000000 O"
b00000000000000000000011100010111 m%
b00000000000000000001000000000100 u%
#7
0U%
b00000000000000000000011100010111 O&
#8
#9
b00000000000000000001000000001000 #
b00000000000000000001000000001000 +
b00000000000000000001000000001000 s
b00000000000000000001000000001000 }!
b00000000000000000001000000001000 G"
b00000000000000000001000000001000 g"
b00000000000000000001000000000100 #$
1U%
b00000000000000000001000000001000 e%
b00000000000000000001000000001000 u%
#10
b00000000000000000001001001111100 #
b00000000000000000001001001111000 +
b00000000000000000001001001111000 s
b01110 {
b10100 %!
b00000000000000000001000000000100 -!
b00100111010001110000011100010011 E!
b00000000000000000000001001110100 M!
0U!
b00000000000000000001001001111000 }!
b0010011 /"
b01110 7"
b00000000000000000001000000000100 G"
b00000000000000000000001001110100 O"
b0010011 W"
b00100111010001110000011100010011 m%
b00000000000000000001001001111000 u%
b00100111010001110000011100010011 O&
#11
0U%
b00000000000000000000000011111111 O&
#12
#13
b00000000000000000001001010000000 #
b00000000000000000001010011101100 +
b00000000000000000001010011101100 s
b00000000000000000001001001111000 -!
b00000000000000000001010011101100 }!
b00000000000000000001001001111000 G"
b00000000000000000001000000001100 g"
b00000000000000000001001001111000 #$
1U%
b00000000000000000001000000001100 e%
b00000000000000000001010011101100 u%
#14
b00000000000000000001000000010000 #
b00000000000000000000000000000100 +
b10010 k
b00000000000000000000000000000100 s
b00000 {
b00100 %!
b00000000000000000000000000000000 -!
b00000000010000000000100100010011 E!
b00000000000000000000000000000100 M!
b00000000000000000000000000000100 }!
b00000 7"
b00000000000000000000000000000000 G"
b00000000000000000000000000000100 O"
b0000000 W"
b00000000010000000000100100010011 m%
b00000000000000000000000000000100 u%
b00000000000000000000000000000000 O&
#15
0U%
#16
#17
b00000000000000000001000000010100 #
b00000000000000000001000000010000 g"
b00000000000000000000000000000100 C$
1U%
b00000000000000000001000000010000 e%
#18
b00000000000000000001000000010000 #
b00000000000000000000000000000000 +
b10011 k
b00000000000000000000000000000000 s
b00000 %!
b00000000000000000000100110010011 E!
b00000000000000000000000000000000 M!
b00000000000000000000000000000000 }!
b00000000000000000000000000000000 O"
b00000000000000000000100110010011 m%
b00000000000000000000000000000000 u%
#19
0U%
#20
#21
b00000000000000000001000000010100 #
b00000000000000000001000000010100 g"
1U%
b00000000000000000001000000010100 e%
#22
b00000000000000000001000001001100 #
b00000000000000000001000001001100 +
b00001 k
b00000000000000000001000000011000 s
b11000 %!
1=!
b00000011100000000000000011101111 E!
b00000000000000000000000000111000 M!
1U!
b11 u!
b00000000000000000001000001001100 }!
b1101111 /"
b00000000000000000001000000010100 G"
b00000000000000000000000000111000 O"
b0000001 W"
b00000011100000000000000011101111 m%
b00000000000000000001000001001100 u%
#23
0U%
b11111111111100000000010000010011 O&
#24
#25
b00000000000000000001000010000100 #
b00000000000000000001000010000100 +
b00000000000000000001000001010000 s
b00000000000000000001000010000100 }!
b00000000000000000001000001001100 G"
b00000000000000000001000001001100 g"
b00000000000000000001000000011000 w"
1U%
b00000000000000000001000001001100 e%
b00000000000000000001000010000100 u%
#26
b00000000000000000001000001001011 #
b00011111111111111111111111111111 +
b01000 k
b11111111111111111111111111111111 s
b11111 %!
0=!
b11111111111100000000010000010011 E!
b11111111111111111111111111111111 M!
0U!
b00 u!
b11111111111111111111111111111111 }!
b0010011 /"
b00000000000000000000000000000000 G"
b11111111111111111111111111111111 O"
b1111111 W"
b11 _"
b11111111111100000000010000010011 m%
b00011111111111111111111111111111 u%
b00000000100011100100010001100011 O&
#27
0U%
b00000000000000000000000000000000 O&
#28
#29
b00000000000000000001000001001111 #
b00000000000000000001000001010000 g"
b11111111111111111111111111111111 Q#
1U%
b00000000000000000001000001010000 e%
#30
b00000000000000000001000001010000 #
b00000000000000000000000000000000 +
b01001 k
b00000000000000000000000000000000 s
b00000 %!
b00000000000000000000010010110011 E!
b00000000000000000000000000000000 M!
0]!
b00000000000000000000000000000000 }!
b0110011 /"
b00000000000000000000000000000000 O"
b0000000 W"
b00 _"
b00000000000000000000010010110011 m%
b00000000000000000000000000000000 u%
#31
0U%
#32
#33
b00000000000000000001000001010100 #
b00000000000000000001000001010100 g"
1U%
b00000000000000000001000001010100 e%
#34
b00000000000000000001000001010110 #
b00111 k
b01001 {
b00010 %!
b00000000001001001001001110010011 E!
b00000000000000000000000000000010 M!
1]!
b001 '"
b0010011 /"
b01001 7"
b0011 ?"
b00000000000000000000000000000010 O"
b00000000001001001001001110010011 m%
#35
0U%
#36
#37
b00000000000000000001000001011010 #
b00000000000000000001000001011000 g"
1U%
b00000000000000000001000001011000 e%
#38
b00000000000000000001000001100110 #
b00000000000000000001001001111000 +
b00000000000000000001001001111000 s
b00111 {
b01110 %!
b00000000000000000001001001111000 5!
b00000000111000111000001110110011 E!
b00000000000000000000000000001110 M!
0]!
b00000000000000000001001001111000 }!
b000 '"
b0110011 /"
b00111 7"
b0001 ?"
b00000000000000000001001001111000 O"
b00000000111000111000001110110011 m%
b00000000000000000001001001111000 u%
#39
0U%
b00000000000000000000000011111111 O&
#40
#41
b00000000000000000001000001101010 #
b00000000000000000010010011110000 +
b00000000000000000010010011110000 s
b00000000000000000001001001111000 -!
b00000000000000000010010011110000 }!
b00000000000000000001001001111000 G"
b00000000000000000001000001011100 g"
b00000000000000000001001001111000 I#
1U%
b00000000000000000001000001011100 e%
b00000000000000000010010011110000 u%
#42
b00000000000000000001000001011100 #
b00000000000000000001001001111000 +
b10100 k
b00000000000000000000000000000000 s
b00000 %!
b00000000000000000000000000000000 5!
b00000000000000111010101000000011 E!
b00000000000000000000000000000000 M!
1]!
1e!
b01 u!
b00000000000000000001001001111000 }!
b010 '"
b0000011 /"
b00000000000000000000000000000000 O"
b00000000000000111010101000000011 m%
b00000000000000000001001001111000 u%
b00000000000000000000000000000000 O&
#43
b00000000000000000000000011111111 s
0U%
b00000000000000000000000011111111 O&
b00000000000000000000000011111111 !'
#44
#45
b00000000000000000001000001100000 #
b00000000000000000001000001100000 g"
b00000000000000000000000011111111 S$
1U%
b00000000000000000001000001100000 e%
#46
b00000000000000000001000001011100 #
b00011111111111111111111111111100 +
b00010 k
b11111111111111111111111111111100 s
b00010 {
b11100 %!
b00000000000000000000000000000000 -!
b11111111110000010000000100010011 E!
b11111111111111111111111111111100 M!
0e!
b00 u!
b11111111111111111111111111111100 }!
b000 '"
b0010011 /"
b00010 7"
b00000000000000000000000000000000 G"
b11111111111111111111111111111100 O"
b1111111 W"
b11111111110000010000000100010011 m%
b00011111111111111111111111111100 u%
b00000000000000000000000000000000 !'
#47
0U%
b00000000000000000000000000000000 O&
#48
#49
b00000000000000000001000001100000 #
b00011111111111111111111111111000 +
b11111111111111111111111111111000 s
b11111111111111111111111111111100 -!
b11111111111111111111111111111000 }!
b11111111111111111111111111111100 G"
b00000000000000000001000001100100 g"
b11111111111111111111111111111100 !#
1U%
b00000000000000000001000001100100 e%
b00011111111111111111111111111000 u%
#50
b00000000000000000001000001100100 #
b00011111111111111111111111111100 +
b00000000000000000001000000011000 3
1;
1C
1K
1S
1[
0c
b00000 k
b11111111111111111111111111111100 s
b00001 %!
b00000000000000000001000000011000 5!
b00000000000100010010000000100011 E!
b00000000000000000000000000000000 M!
1m!
b11111111111111111111111111111100 }!
b010 '"
b0100011 /"
b00000000000000000000000000000000 O"
b0000000 W"
b00000000000100010010000000100011 m%
b00011111111111111111111111111100 u%
b00000000000000000001000000011000 }%
1'&
1/&
17&
1?&
1G&
#51
0U%
#52
#53
b00000000000000000001000001101000 #
b00000000000000000001000001101000 g"
1U%
b00000000000000000001000001101000 e%
#54
b00000000000000000001000001111100 #
b00000000000000000000000011111111 +
b00000000000000000000000000000000 3
0;
0C
0K
0S
0[
1c
b01010 k
b00000000000000000000000011111111 s
b00000 {
b10100 %!
b00000000000000000000000000000000 -!
b00000000000000000000000011111111 5!
b00000001010000000000010100110011 E!
b00000000000000000000000000010100 M!
0]!
0m!
b00000000000000000000000011111111 }!
b000 '"
b0110011 /"
b00000 7"
b00000000000000000000000000000000 G"
b00000000000000000000000011111111 O"
b11 _"
b00000001010000000000010100110011 m%
b00000000000000000000000011111111 u%
b00000000000000000000000000000000 }%
0'&
0/&
07&
0?&
0G&
#55
0U%
#56
#57
b00000000000000000001000010000000 #
b00000000000000000001000001101100 g"
b00000000000000000000000011111111 a#
1U%
b00000000000000000001000001101100 e%
#58
b00000000000000000001000101000100 #
b00000000000000000001000101000100 +
b00001 k
b00000000000000000001000001110000 s
b11000 %!
b00000000000000000000000000000000 5!
1=!
b00001101100000000000000011101111 E!
b00000000000000000000000011011000 M!
1U!
1]!
b11 u!
b00000000000000000001000101000100 }!
b1101111 /"
b00000000000000000001000001101100 G"
b00000000000000000000000011011000 O"
b0000110 W"
b00 _"
b00001101100000000000000011101111 m%
b00000000000000000001000101000100 u%
#59
0U%
b00000000000101010101001010010011 O&
#60
#61
b00000000000000000001001000011100 #
b00000000000000000001001000011100 +
b00000000000000000001000101001000 s
b00000000000000000001001000011100 }!
b00000000000000000001000101000100 G"
b00000000000000000001000101000100 g"
b00000000000000000001000001110000 w"
1U%
b00000000000000000001000101000100 e%
b00000000000000000001001000011100 u%
#62
b00000000000000000001000101000101 #
b00000000000000000000000001111111 +
b00101 k
b00000000000000000000000001111111 s
b01010 {
b00001 %!
b00000000000000000000000011111111 -!
b00000000000000000001000001110000 5!
0=!
b00000000000101010101001010010011 E!
b00000000000000000000000000000001 M!
0U!
b00 u!
b00000000000000000000000001111111 }!
b101 '"
b0010011 /"
b01010 7"
b1000 ?"
b00000000000000000000000011111111 G"
b00000000000000000000000000000001 O"
b0000000 W"
b11 _"
b00000000000101010101001010010011 m%
b00000000000000000000000001111111 u%
b00000100000000000000100010010011 O&
#63
0U%
b00000000000000000000000000000000 O&
#64
#65
b00000000000000000001000101001001 #
b00000000000000000001000101001000 g"
b00000000000000000000000001111111 9#
1U%
b00000000000000000001000101001000 e%
#66
b00000000000000000001000101001101 #
b00000000000000000000000011111111 +
b01010 k
b00000000000000000000000011111111 s
b00101 %!
b00000000000000000000000001111111 5!
b00000000010101010110010100110011 E!
b00000000000000000000000000000101 M!
0]!
b00000000000000000000000011111111 }!
b110 '"
b0110011 /"
b0110 ?"
b00000000000000000000000001111111 O"
b00000000010101010110010100110011 m%
b00000000000000000000000011111111 u%
#67
0U%
#68
#69
b00000000000000000001000101010001 #
b00000000000000000001000101001100 g"
1U%
b00000000000000000001000101001100 e%
#70
b00000000000000000001000101001110 #
b00000000000000000000000000111111 +
b00101 k
b00000000000000000000000000111111 s
b00010 %!
b11111111111111111111111111111100 5!
b00000000001001010101001010010011 E!
b00000000000000000000000000000010 M!
1]!
b00000000000000000000000000111111 }!
b101 '"
b0010011 /"
b1000 ?"
b00000000000000000000000000000010 O"
b00000000001001010101001010010011 m%
b00000000000000000000000000111111 u%
#71
0U%
#72
#73
b00000000000000000001000101010010 #
b00000000000000000001000101010000 g"
b00000000000000000000000000111111 9#
1U%
b00000000000000000001000101010000 e%
#74
b00000000000000000001000101010101 #
b00000000000000000000000011111111 +
b01010 k
b00000000000000000000000011111111 s
b00101 %!
b00000000000000000000000000111111 5!
b00000000010101010110010100110011 E!
b00000000000000000000000000000101 M!
0]!
b00000000000000000000000011111111 }!
b110 '"
b0110011 /"
b0110 ?"
b00000000000000000000000000111111 O"
b00000000010101010110010100110011 m%
b00000000000000000000000011111111 u%
#75
0U%
#76
#77
b00000000000000000001000101011001 #
b00000000000000000001000101010100 g"
1U%
b00000000000000000001000101010100 e%
#78
b00000000000000000001000101011000 #
b00000000000000000000000000001111 +
b00101 k
b00000000000000000000000000001111 s
b00100 %!
b00000000000000000000000000000000 5!
b00000000010001010101001010010011 E!
b00000000000000000000000000000100 M!
1]!
b00000000000000000000000000001111 }!
b101 '"
b0010011 /"
b1000 ?"
b00000000000000000000000000000100 O"
b00000000010001010101001010010011 m%
b00000000000000000000000000001111 u%
#79
0U%
#80
#81
b00000000000000000001000101011100 #
b00000000000000000001000101011000 g"
b00000000000000000000000000001111 9#
1U%
b00000000000000000001000101011000 e%
#82
b00000000000000000001000101011101 #
b00000000000000000000000011111111 +
b01010 k
b00000000000000000000000011111111 s
b00101 %!
b00000000000000000000000000001111 5!
b00000000010101010110010100110011 E!
b00000000000000000000000000000101 M!
0]!
b00000000000000000000000011111111 }!
b110 '"
b0110011 /"
b0110 ?"
b00000000000000000000000000001111 O"
b00000000010101010110010100110011 m%
b00000000000000000000000011111111 u%
#83
0U%
#84
#85
b00000000000000000001000101100001 #
b00000000000000000001000101011100 g"
1U%
b00000000000000000001000101011100 e%
#86
b00000000000000000001000101100100 #
b00000000000000000000000000000000 +
b00101 k
b00000000000000000000000000000000 s
b01000 %!
b11111111111111111111111111111111 5!
b00000000100001010101001010010011 E!
b00000000000000000000000000001000 M!
1]!
b00000000000000000000000000000000 }!
b101 '"
b0010011 /"
b1000 ?"
b00000000000000000000000000001000 O"
b00 _"
b00000000100001010101001010010011 m%
b00000000000000000000000000000000 u%
#87
0U%
#88
#89
b00000000000000000001000101101000 #
b00000000000000000001000101100000 g"
b00000000000000000000000000000000 9#
1U%
b00000000000000000001000101100000 e%
#90
b00000000000000000001000101100101 #
b00000000000000000000000011111111 +
b01010 k
b00000000000000000000000011111111 s
b00101 %!
b00000000000000000000000000000000 5!
b00000000010101010110010100110011 E!
b00000000000000000000000000000101 M!
0]!
b00000000000000000000000011111111 }!
b110 '"
b0110011 /"
b0110 ?"
b00000000000000000000000000000000 O"
b11 _"
b00000000010101010110010100110011 m%
b00000000000000000000000011111111 u%
#91
0U%
#92
#93
b00000000000000000001000101101001 #
b00000000000000000001000101100100 g"
1U%
b00000000000000000001000101100100 e%
#94
b00000000000000000001000101110100 #
b00000000000000000000000000000000 +
b00101 k
b00000000000000000000000000000000 s
b10000 %!
b00000001000001010101001010010011 E!
b00000000000000000000000000010000 M!
1]!
b00000000000000000000000000000000 }!
b101 '"
b0010011 /"
b1000 ?"
b00000000000000000000000000010000 O"
b00 _"
b00000001000001010101001010010011 m%
b00000000000000000000000000000000 u%
#95
0U%
#96
#97
b00000000000000000001000101111000 #
b00000000000000000001000101101000 g"
1U%
b00000000000000000001000101101000 e%
